{
  "ID": "aa960cb2-07e9-4777-a3ed-794d350ac71e",
  "Version": "2.3.2.3",
  "Name": "ResItemShopLayout",
  "Content": {
    "Content": {
      "Animation": {
        "Duration": 0,
        "Speed": 1.0,
        "Timelines": [],
        "ctype": "TimelineActionData"
      },
      "AnimationList": [],
      "ObjectData": {
        "Tag": 29,
        "Children": [
          {
            "BackColorAlpha": 0,
            "ComboBoxIndex": 1,
            "SingleColor": {
              "R": 150,
              "G": 200
            },
            "FirstColor": {
              "R": 150,
              "G": 200
            },
            "EndColor": {},
            "ColorVector": {
              "ScaleY": 1.0
            },
            "TouchEnable": true,
            "AnchorPoint": {
              "ScaleX": 0.5,
              "ScaleY": 0.5
            },
            "Position": {
              "X": 0.0,
              "Y": 0.0
            },
            "Scale": {
              "ScaleX": 1.0,
              "ScaleY": 1.0
            },
            "CColor": {},
            "IconVisible": false,
            "PrePosition": {
              "X": 0.0,
              "Y": 0.0
            },
            "PreSize": {
              "X": 0.0,
              "Y": 0.0
            },
            "HorizontalEdge": "BothEdge",
            "VerticalEdge": "BothEdge",
            "LeftMargin": -125.0,
            "RightMargin": -125.0,
            "TopMargin": -175.0,
            "BottomMargin": -175.0,
            "Tag": 30,
            "Children": [
              {
                "FileData": {
                  "Type": "Normal",
                  "Path": "Art/GUIs/shop_gui/slot.png",
                  "Plist": ""
                },
                "BlendFunc": {
                  "Src": 770,
                  "Dst": 771
                },
                "AnchorPoint": {
                  "ScaleX": 0.5,
                  "ScaleY": 0.5
                },
                "Position": {
                  "X": 125.0,
                  "Y": 175.0
                },
                "Scale": {
                  "ScaleX": 1.0,
                  "ScaleY": 1.0
                },
                "CColor": {},
                "IconVisible": false,
                "PrePosition": {
                  "X": 0.5,
                  "Y": 0.5
                },
                "PreSize": {
                  "X": 0.0,
                  "Y": 0.0
                },
                "HorizontalEdge": "BothEdge",
                "VerticalEdge": "BothEdge",
                "LeftMargin": -13.0,
                "RightMargin": -13.0,
                "TopMargin": -62.5,
                "BottomMargin": -62.5,
                "Tag": 31,
                "ActionTag": 679648983,
                "Size": {
                  "X": 226.0,
                  "Y": 325.0
                },
                "Name": "bg",
                "ctype": "SpriteObjectData"
              },
              {
                "FileData": {
                  "Type": "Normal",
                  "Path": "Art/GUIs/shop_gui/item_background.png",
                  "Plist": ""
                },
                "Scale9Width": 235,
                "Scale9Height": 325,
                "AnchorPoint": {
                  "ScaleX": 0.5,
                  "ScaleY": 0.5
                },
                "Position": {
                  "X": 125.0,
                  "Y": 175.0
                },
                "Scale": {
                  "ScaleX": 1.0,
                  "ScaleY": 1.0
                },
                "CColor": {},
                "IconVisible": false,
                "PrePosition": {
                  "X": 0.5,
                  "Y": 0.5
                },
                "PreSize": {
                  "X": 0.8,
                  "Y": 0.7143
                },
                "HorizontalEdge": "BothEdge",
                "VerticalEdge": "BothEdge",
                "LeftMargin": 25.0,
                "RightMargin": 25.0,
                "TopMargin": 50.0,
                "BottomMargin": 50.0,
                "Tag": 32,
                "ActionTag": -607320854,
                "Size": {
                  "X": 200.0,
                  "Y": 250.0
                },
                "Name": "Image_1",
                "ctype": "ImageViewObjectData"
              },
              {
                "FileData": {
                  "Type": "Default",
                  "Path": "Default/Sprite.png",
                  "Plist": ""
                },
                "BlendFunc": {
                  "Src": 770,
                  "Dst": 771
                },
                "AnchorPoint": {
                  "ScaleX": 0.5,
                  "ScaleY": 0.5
                },
                "Position": {
                  "X": 125.0,
                  "Y": 175.0
                },
                "Scale": {
                  "ScaleX": 1.0,
                  "ScaleY": 1.0
                },
                "CColor": {},
                "IconVisible": false,
                "PrePosition": {
                  "X": 0.5,
                  "Y": 0.5
                },
                "PreSize": {
                  "X": 0.0,
                  "Y": 0.0
                },
                "HorizontalEdge": "BothEdge",
                "VerticalEdge": "BothEdge",
                "LeftMargin": 102.0,
                "RightMargin": 102.0,
                "TopMargin": 152.0,
                "BottomMargin": 152.0,
                "Tag": 33,
                "ActionTag": 751413936,
                "Size": {
                  "X": 46.0,
                  "Y": 46.0
                },
                "Name": "icon",
                "ctype": "SpriteObjectData"
              },
              {
                "LabelText": "name",
                "LabelBMFontFile_CNB": {
                  "Type": "Normal",
                  "Path": "Art/Fonts/fista_20_non.fnt",
                  "Plist": ""
                },
                "AnchorPoint": {
                  "ScaleX": 0.5,
                  "ScaleY": 0.5
                },
                "Position": {
                  "X": 125.0,
                  "Y": 309.9999
                },
                "Scale": {
                  "ScaleX": 1.0,
                  "ScaleY": 1.0
                },
                "CColor": {},
                "IconVisible": false,
                "PrePosition": {
                  "X": 0.5,
                  "Y": 0.8857
                },
                "PreSize": {
                  "X": 0.44,
                  "Y": 0.06
                },
                "HorizontalEdge": "BothEdge",
                "VerticalEdge": "BothEdge",
                "LeftMargin": 104.5,
                "RightMargin": 104.5,
                "TopMargin": 29.5001,
                "BottomMargin": 299.4999,
                "Tag": 36,
                "ActionTag": -1833359914,
                "Size": {
                  "X": 41.0,
                  "Y": 21.0
                },
                "Name": "name",
                "ctype": "TextBMFontObjectData"
              },
              {
                "FontSize": 14,
                "ButtonText": "",
                "TextColor": {
                  "R": 65,
                  "G": 65,
                  "B": 70
                },
                "DisabledFileData": {
                  "Type": "Default",
                  "Path": "Default/Button_Disable.png",
                  "Plist": ""
                },
                "PressedFileData": {
                  "Type": "Normal",
                  "Path": "Art/GUIs/shop_gui/info.png",
                  "Plist": ""
                },
                "NormalFileData": {
                  "Type": "Normal",
                  "Path": "Art/GUIs/shop_gui/info.png",
                  "Plist": ""
                },
                "Scale9Enable": true,
                "Scale9OriginX": 12,
                "Scale9OriginY": 11,
                "Scale9Width": 13,
                "Scale9Height": 17,
                "OutlineColor": {
                  "G": 0,
                  "B": 0
                },
                "ShadowColor": {
                  "R": 110,
                  "G": 110,
                  "B": 110
                },
                "ShadowOffsetX": 2.0,
                "ShadowOffsetY": -2.0,
                "TouchEnable": true,
                "AnchorPoint": {
                  "ScaleX": 0.5,
                  "ScaleY": 0.5
                },
                "Position": {
                  "X": 209.2427,
                  "Y": 308.6037
                },
                "Scale": {
                  "ScaleX": 0.75,
                  "ScaleY": 0.75
                },
                "CColor": {},
                "IconVisible": false,
                "PrePosition": {
                  "X": 0.837,
                  "Y": 0.8817
                },
                "PreSize": {
                  "X": 0.148,
                  "Y": 0.1114
                },
                "LeftMargin": 190.7427,
                "RightMargin": 22.2573,
                "TopMargin": 21.8963,
                "BottomMargin": 289.1037,
                "Tag": 37,
                "ActionTag": 372982043,
                "Size": {
                  "X": 37.0,
                  "Y": 39.0
                },
                "Name": "btn_info",
                "ctype": "ButtonObjectData"
              },
              {
                "FileData": {
                  "Type": "Normal",
                  "Path": "Art/GUIs/shop_gui/time.png",
                  "Plist": ""
                },
                "BlendFunc": {
                  "Src": 770,
                  "Dst": 771
                },
                "AnchorPoint": {
                  "ScaleX": 0.5,
                  "ScaleY": 0.5
                },
                "Position": {
                  "X": 35.8875,
                  "Y": 106.4155
                },
                "Scale": {
                  "ScaleX": 0.75,
                  "ScaleY": 0.75
                },
                "CColor": {},
                "IconVisible": false,
                "PrePosition": {
                  "X": 0.1435,
                  "Y": 0.304
                },
                "PreSize": {
                  "X": 0.0,
                  "Y": 0.0
                },
                "LeftMargin": 21.8875,
                "RightMargin": 200.1125,
                "TopMargin": 222.5845,
                "BottomMargin": 85.4155,
                "Tag": 38,
                "ActionTag": 765277835,
                "Size": {
                  "X": 28.0,
                  "Y": 42.0
                },
                "Name": "time_icon",
                "ctype": "SpriteObjectData"
              },
              {
                "LabelText": "time",
                "LabelBMFontFile_CNB": {
                  "Type": "Normal",
                  "Path": "Art/Fonts/fista_20_non.fnt",
                  "Plist": ""
                },
                "AnchorPoint": {
                  "ScaleX": 0.5,
                  "ScaleY": 0.5
                },
                "Position": {
                  "X": 64.9648,
                  "Y": 108.271
                },
                "Scale": {
                  "ScaleX": 1.0,
                  "ScaleY": 1.0
                },
                "CColor": {},
                "IconVisible": false,
                "PrePosition": {
                  "X": 0.2599,
                  "Y": 0.3093
                },
                "PreSize": {
                  "X": 0.44,
                  "Y": 0.06
                },
                "LeftMargin": 46.4648,
                "RightMargin": 166.5352,
                "TopMargin": 231.229,
                "BottomMargin": 97.771,
                "Tag": 39,
                "ActionTag": -668346601,
                "Size": {
                  "X": 37.0,
                  "Y": 21.0
                },
                "Name": "timeBuilding",
                "ctype": "TextBMFontObjectData"
              },
              {
                "LabelText": "curNum",
                "LabelBMFontFile_CNB": {
                  "Type": "Normal",
                  "Path": "Art/Fonts/fista_20_non.fnt",
                  "Plist": ""
                },
                "AnchorPoint": {
                  "ScaleX": 0.5,
                  "ScaleY": 0.5
                },
                "Position": {
                  "X": 191.798,
                  "Y": 108.2708
                },
                "Scale": {
                  "ScaleX": 1.0,
                  "ScaleY": 1.0
                },
                "CColor": {},
                "IconVisible": false,
                "PrePosition": {
                  "X": 0.7672,
                  "Y": 0.3093
                },
                "PreSize": {
                  "X": 0.232,
                  "Y": 0.06
                },
                "LeftMargin": 162.798,
                "RightMargin": 29.202,
                "TopMargin": 231.2292,
                "BottomMargin": 97.7708,
                "Tag": 40,
                "ActionTag": -1588504837,
                "Size": {
                  "X": 58.0,
                  "Y": 21.0
                },
                "Name": "curNum",
                "ctype": "TextBMFontObjectData"
              },
              {
                "FileData": {
                  "Type": "Default",
                  "Path": "Default/Sprite.png",
                  "Plist": ""
                },
                "BlendFunc": {
                  "Src": 770,
                  "Dst": 771
                },
                "AnchorPoint": {
                  "ScaleX": 0.5,
                  "ScaleY": 0.5
                },
                "Position": {
                  "X": 199.8397,
                  "Y": 50.3518
                },
                "Scale": {
                  "ScaleX": 1.0,
                  "ScaleY": 1.0
                },
                "CColor": {},
                "IconVisible": false,
                "PrePosition": {
                  "X": 0.7994,
                  "Y": 0.1439
                },
                "PreSize": {
                  "X": 0.0,
                  "Y": 0.0
                },
                "LeftMargin": 176.8397,
                "RightMargin": 27.1603,
                "TopMargin": 276.6482,
                "BottomMargin": 27.3518,
                "Tag": 41,
                "ActionTag": -1191644515,
                "Size": {
                  "X": 46.0,
                  "Y": 46.0
                },
                "Name": "iconBuyingRes",
                "ctype": "SpriteObjectData"
              },
              {
                "LabelText": "money",
                "LabelBMFontFile_CNB": {
                  "Type": "Normal",
                  "Path": "Art/Fonts/fista_20_non.fnt",
                  "Plist": ""
                },
                "AnchorPoint": {
                  "ScaleX": 0.5,
                  "ScaleY": 0.5
                },
                "Position": {
                  "X": 151.4275,
                  "Y": 50.7639
                },
                "Scale": {
                  "ScaleX": 1.0,
                  "ScaleY": 1.0
                },
                "CColor": {},
                "IconVisible": false,
                "PrePosition": {
                  "X": 0.6057,
                  "Y": 0.145
                },
                "PreSize": {
                  "X": 0.208,
                  "Y": 0.06
                },
                "LeftMargin": 125.4275,
                "RightMargin": 72.5725,
                "TopMargin": 288.7361,
                "BottomMargin": 40.2639,
                "Tag": 42,
                "ActionTag": -1232259103,
                "Size": {
                  "X": 52.0,
                  "Y": 21.0
                },
                "Name": "buyingRes",
                "ctype": "TextBMFontObjectData"
              }
            ],
            "ActionTag": 1702333147,
            "Size": {
              "X": 250.0,
              "Y": 350.0
            },
            "Name": "layout",
            "ctype": "PanelObjectData"
          }
        ],
        "Size": {
          "X": 0.0,
          "Y": 0.0
        },
        "Name": "Node",
        "ctype": "SingleNodeObjectData"
      },
      "UsedResources": [
        "../Art/Fonts/fista_20_non.fnt",
        "../Art/Fonts/fista_20_non.png",
        "../Art/GUIs/shop_gui/info.png",
        "../Art/GUIs/shop_gui/item_background.png",
        "../Art/GUIs/shop_gui/slot.png",
        "../Art/GUIs/shop_gui/time.png",
        "../Default/Button_Disable.png",
        "../Default/Sprite.png"
      ],
      "ctype": "GameProjectData"
    }
  },
  "Type": "Node"
}