info face="number_bitmap_10" size=32 bold=0 italic=0 charset="" unicode=0 stretchH=100 smooth=1 aa=1 padding=0,0,0,0 spacing=1,1
common lineHeight=30 base=26 scaleW=128 scaleH=128 pages=1 packed=0 alphaChnl=1 redChnl=0 greenChnl=0 blueChnl=0
page id=0 file="number_bitmap_10.png"
chars count=22
char id=47 x=71 y=53 width=14 height=31 xoffset=0 yoffset=2 xadvance=14 page=0 chnl=0 letter="/"
char id=37 x=0 y=0 width=25 height=29 xoffset=0 yoffset=2 xadvance=25 page=0 chnl=0 letter="%"
char id=48 x=54 y=90 width=16 height=29 xoffset=0 yoffset=2 xadvance=16 page=0 chnl=0 letter="0"
char id=49 x=74 y=24 width=13 height=28 xoffset=0 yoffset=2 xadvance=13 page=0 chnl=0 letter="1"
char id=50 x=37 y=90 width=16 height=28 xoffset=0 yoffset=2 xadvance=16 page=0 chnl=0 letter="2"
char id=51 x=23 y=30 width=17 height=29 xoffset=0 yoffset=2 xadvance=17 page=0 chnl=0 letter="3"
char id=52 x=19 y=78 width=17 height=28 xoffset=0 yoffset=2 xadvance=17 page=0 chnl=0 letter="4"
char id=53 x=54 y=60 width=16 height=29 xoffset=0 yoffset=2 xadvance=16 page=0 chnl=0 letter="5"
char id=54 x=37 y=60 width=16 height=29 xoffset=0 yoffset=2 xadvance=16 page=0 chnl=0 letter="6"
char id=55 x=43 y=0 width=16 height=28 xoffset=0 yoffset=2 xadvance=16 page=0 chnl=0 letter="7"
char id=56 x=26 y=0 width=16 height=29 xoffset=0 yoffset=2 xadvance=16 page=0 chnl=0 letter="8"
char id=57 x=41 y=30 width=16 height=29 xoffset=0 yoffset=2 xadvance=16 page=0 chnl=0 letter="9"
char id=36 x=0 y=78 width=18 height=34 xoffset=0 yoffset=-1 xadvance=18 page=0 chnl=0 letter="$"
char id=44 x=20 y=60 width=7 height=13 xoffset=0 yoffset=22 xadvance=7 page=0 chnl=0 letter=","
char id=46 x=14 y=119 width=7 height=8 xoffset=0 yoffset=22 xadvance=7 page=0 chnl=0 letter="."
char id=43 x=0 y=30 width=22 height=23 xoffset=0 yoffset=7 xadvance=22 page=0 chnl=0 letter="+"
char id=45 x=0 y=119 width=13 height=7 xoffset=0 yoffset=16 xadvance=13 page=0 chnl=0 letter="-"
char id=75 x=58 y=29 width=15 height=23 xoffset=0 yoffset=7 xadvance=15 page=0 chnl=0 letter="K"
char id=77 x=0 y=54 width=19 height=23 xoffset=0 yoffset=7 xadvance=19 page=0 chnl=0 letter="M"
char id=66 x=60 y=0 width=14 height=23 xoffset=0 yoffset=7 xadvance=14 page=0 chnl=0 letter="B"
char id=32 x=0 y=0 width=0 height=0 xoffset=0 yoffset=0 xadvance=13 page=0 chnl=0 letter=" "
char id=9 x=0 y=0 width=0 height=0 xoffset=0 yoffset=0 xadvance=0 page=0 chnl=0 letter="	"

kernings count=0
