info face="number_bitmap_18" size=32 bold=0 italic=0 charset="" unicode=0 stretchH=100 smooth=1 aa=1 padding=0,0,0,0 spacing=1,1
common lineHeight=50 base=26 scaleW=128 scaleH=256 pages=1 packed=0 alphaChnl=1 redChnl=0 greenChnl=0 blueChnl=0
page id=0 file="number_bitmap_18.png"
chars count=21
char id=37 x=0 y=0 width=43 height=49 xoffset=0 yoffset=2 xadvance=44 page=0 chnl=0 letter="%"
char id=48 x=58 y=139 width=27 height=49 xoffset=0 yoffset=2 xadvance=28 page=0 chnl=0 letter="0"
char id=49 x=86 y=100 width=21 height=48 xoffset=0 yoffset=2 xadvance=22 page=0 chnl=0 letter="1"
char id=50 x=0 y=147 width=28 height=48 xoffset=0 yoffset=2 xadvance=29 page=0 chnl=0 letter="2"
char id=51 x=29 y=147 width=28 height=49 xoffset=0 yoffset=2 xadvance=29 page=0 chnl=0 letter="3"
char id=52 x=29 y=197 width=28 height=47 xoffset=0 yoffset=3 xadvance=29 page=0 chnl=0 letter="4"
char id=53 x=58 y=189 width=27 height=48 xoffset=0 yoffset=3 xadvance=28 page=0 chnl=0 letter="5"
char id=54 x=59 y=50 width=27 height=49 xoffset=0 yoffset=2 xadvance=28 page=0 chnl=0 letter="6"
char id=55 x=72 y=0 width=27 height=47 xoffset=0 yoffset=3 xadvance=28 page=0 chnl=0 letter="7"
char id=56 x=31 y=89 width=27 height=49 xoffset=0 yoffset=2 xadvance=28 page=0 chnl=0 letter="8"
char id=57 x=44 y=0 width=27 height=49 xoffset=0 yoffset=2 xadvance=28 page=0 chnl=0 letter="9"
char id=36 x=0 y=89 width=30 height=57 xoffset=0 yoffset=-2 xadvance=31 page=0 chnl=0 letter="$"
char id=44 x=86 y=149 width=11 height=20 xoffset=0 yoffset=39 xadvance=12 page=0 chnl=0 letter=","
char id=46 x=0 y=241 width=11 height=11 xoffset=0 yoffset=39 xadvance=12 page=0 chnl=0 letter="."
char id=43 x=0 y=50 width=37 height=38 xoffset=0 yoffset=12 xadvance=38 page=0 chnl=0 letter="+"
char id=45 x=0 y=230 width=22 height=10 xoffset=0 yoffset=27 xadvance=23 page=0 chnl=0 letter="-"
char id=75 x=59 y=100 width=22 height=33 xoffset=0 yoffset=17 xadvance=23 page=0 chnl=0 letter="K"
char id=77 x=0 y=196 width=28 height=33 xoffset=0 yoffset=17 xadvance=29 page=0 chnl=0 letter="M"
char id=66 x=38 y=50 width=20 height=33 xoffset=0 yoffset=17 xadvance=21 page=0 chnl=0 letter="B"
char id=32 x=0 y=0 width=0 height=0 xoffset=0 yoffset=0 xadvance=0 page=0 chnl=0 letter=" "
char id=9 x=0 y=0 width=0 height=0 xoffset=0 yoffset=0 xadvance=0 page=0 chnl=0 letter="	"

kernings count=0
