info face="number_bitmap_6" size=32 bold=0 italic=0 charset="" unicode=0 stretchH=100 smooth=1 aa=1 padding=0,0,0,0 spacing=1,1
common lineHeight=20 base=26 scaleW=128 scaleH=64 pages=1 packed=0 alphaChnl=1 redChnl=0 greenChnl=0 blueChnl=0
page id=0 file="number_bitmap_6.png"
chars count=21
char id=37 x=0 y=0 width=17 height=19 xoffset=0 yoffset=2 xadvance=17 page=0 chnl=0 letter="%"
char id=48 x=64 y=39 width=11 height=19 xoffset=0 yoffset=2 xadvance=11 page=0 chnl=0 letter="0"
char id=49 x=65 y=19 width=9 height=18 xoffset=0 yoffset=2 xadvance=9 page=0 chnl=0 letter="1"
char id=50 x=55 y=0 width=11 height=18 xoffset=0 yoffset=2 xadvance=11 page=0 chnl=0 letter="2"
char id=51 x=53 y=19 width=11 height=19 xoffset=0 yoffset=2 xadvance=11 page=0 chnl=0 letter="3"
char id=52 x=41 y=20 width=11 height=18 xoffset=0 yoffset=2 xadvance=11 page=0 chnl=0 letter="4"
char id=53 x=31 y=0 width=11 height=19 xoffset=0 yoffset=2 xadvance=11 page=0 chnl=0 letter="5"
char id=54 x=52 y=39 width=11 height=19 xoffset=0 yoffset=2 xadvance=11 page=0 chnl=0 letter="6"
char id=55 x=43 y=0 width=11 height=18 xoffset=0 yoffset=2 xadvance=11 page=0 chnl=0 letter="7"
char id=56 x=28 y=42 width=11 height=19 xoffset=0 yoffset=2 xadvance=11 page=0 chnl=0 letter="8"
char id=57 x=40 y=42 width=11 height=19 xoffset=0 yoffset=2 xadvance=11 page=0 chnl=0 letter="9"
char id=36 x=18 y=0 width=12 height=22 xoffset=0 yoffset=0 xadvance=12 page=0 chnl=0 letter="$"
char id=44 x=16 y=23 width=5 height=9 xoffset=0 yoffset=14 xadvance=5 page=0 chnl=0 letter=","
char id=46 x=22 y=23 width=5 height=6 xoffset=0 yoffset=14 xadvance=5 page=0 chnl=0 letter="."
char id=43 x=0 y=39 width=14 height=15 xoffset=0 yoffset=5 xadvance=14 page=0 chnl=0 letter="+"
char id=45 x=0 y=55 width=10 height=6 xoffset=0 yoffset=10 xadvance=10 page=0 chnl=0 letter="-"
char id=75 x=28 y=23 width=12 height=18 xoffset=0 yoffset=2 xadvance=12 page=0 chnl=0 letter="K"
char id=77 x=0 y=20 width=15 height=18 xoffset=0 yoffset=2 xadvance=15 page=0 chnl=0 letter="M"
char id=66 x=15 y=39 width=12 height=18 xoffset=0 yoffset=2 xadvance=12 page=0 chnl=0 letter="B"
char id=32 x=0 y=0 width=0 height=0 xoffset=0 yoffset=0 xadvance=0 page=0 chnl=0 letter=" "
char id=9 x=0 y=0 width=0 height=0 xoffset=0 yoffset=0 xadvance=0 page=0 chnl=0 letter="	"

kernings count=0
