info face="number_bitmap_16" size=32 bold=0 italic=0 charset="" unicode=0 stretchH=100 smooth=1 aa=1 padding=0,0,0,0 spacing=1,1
common lineHeight=45 base=26 scaleW=128 scaleH=256 pages=1 packed=0 alphaChnl=1 redChnl=0 greenChnl=0 blueChnl=0
page id=0 file="number_bitmap_16.png"
chars count=21
char id=37 x=0 y=0 width=39 height=44 xoffset=0 yoffset=2 xadvance=39 page=0 chnl=0 letter="%"
char id=48 x=35 y=45 width=24 height=44 xoffset=0 yoffset=2 xadvance=24 page=0 chnl=0 letter="0"
char id=49 x=60 y=43 width=18 height=43 xoffset=0 yoffset=2 xadvance=18 page=0 chnl=0 letter="1"
char id=50 x=0 y=209 width=25 height=43 xoffset=0 yoffset=2 xadvance=25 page=0 chnl=0 letter="2"
char id=51 x=26 y=209 width=25 height=44 xoffset=0 yoffset=2 xadvance=25 page=0 chnl=0 letter="3"
char id=52 x=0 y=166 width=26 height=42 xoffset=0 yoffset=3 xadvance=26 page=0 chnl=0 letter="4"
char id=53 x=53 y=90 width=24 height=43 xoffset=0 yoffset=3 xadvance=24 page=0 chnl=0 letter="5"
char id=54 x=52 y=204 width=24 height=44 xoffset=0 yoffset=2 xadvance=24 page=0 chnl=0 letter="6"
char id=55 x=40 y=0 width=24 height=42 xoffset=0 yoffset=3 xadvance=24 page=0 chnl=0 letter="7"
char id=56 x=28 y=114 width=24 height=44 xoffset=0 yoffset=2 xadvance=24 page=0 chnl=0 letter="8"
char id=57 x=28 y=159 width=24 height=44 xoffset=0 yoffset=2 xadvance=24 page=0 chnl=0 letter="9"
char id=36 x=0 y=114 width=27 height=51 xoffset=0 yoffset=-1 xadvance=27 page=0 chnl=0 letter="$"
char id=44 x=65 y=0 width=9 height=18 xoffset=0 yoffset=35 xadvance=9 page=0 chnl=0 letter=","
char id=46 x=29 y=101 width=9 height=10 xoffset=0 yoffset=35 xadvance=9 page=0 chnl=0 letter="."
char id=43 x=0 y=45 width=34 height=34 xoffset=0 yoffset=11 xadvance=34 page=0 chnl=0 letter="+"
char id=45 x=29 y=90 width=20 height=10 xoffset=0 yoffset=24 xadvance=20 page=0 chnl=0 letter="-"
char id=75 x=53 y=134 width=22 height=33 xoffset=0 yoffset=12 xadvance=22 page=0 chnl=0 letter="K"
char id=77 x=0 y=80 width=28 height=33 xoffset=0 yoffset=12 xadvance=28 page=0 chnl=0 letter="M"
char id=66 x=53 y=168 width=20 height=33 xoffset=0 yoffset=12 xadvance=20 page=0 chnl=0 letter="B"
char id=32 x=0 y=0 width=0 height=0 xoffset=0 yoffset=0 xadvance=0 page=0 chnl=0 letter=" "
char id=9 x=0 y=0 width=0 height=0 xoffset=0 yoffset=0 xadvance=0 page=0 chnl=0 letter="	"

kernings count=0
